<?xml version='1.0' encoding='UTF-8' standalone='no'?>
<!-- Created with Fritzing (http://www.fritzing.org/) -->
<svg xmlns="http://www.w3.org/2000/svg" version="1.2" x="0in"  y="0in" baseProfile="tiny" viewBox="0 0 5.53721 4.5974" height="0.181in" width="0.218in">
    <desc>
        <referenceFile>sparkfun-sensors_to-92_pcb.svg</referenceFile>
    </desc>
    <g  id="copper1" gorn="0.0">
        <circle cy="2.8448" stroke-width="0.5334"  fill="none" stroke="#F7BD13" id="connector2pad" connectorname="3" r="0.6731" cx="4.03865" gorn="0.0.0"/>
        <circle cy="0.9398" stroke-width="0.5334"  fill="none" stroke="#F7BD13" id="connector1pad" connectorname="2" r="0.6731" cx="2.76865" gorn="0.0.1"/>
        <circle cy="2.8448" stroke-width="0.5334"  fill="none" stroke="#F7BD13" id="connector0pad" connectorname="1" r="0.6731" cx="1.49865" gorn="0.0.2"/>
        <g  id="copper0" gorn="0.0.3">
            <circle cy="2.8448" stroke-width="0.5334"  fill="none" stroke="#F7BD13" id="connector2pad" connectorname="3" r="0.6731" cx="4.03865" gorn="0.0.3.0"/>
            <circle cy="0.9398" stroke-width="0.5334"  fill="none" stroke="#F7BD13" id="connector1pad" connectorname="2" r="0.6731" cx="2.76865" gorn="0.0.3.1"/>
            <circle cy="2.8448" stroke-width="0.5334"  fill="none" stroke="#F7BD13" id="connector0pad" connectorname="1" r="0.6731" cx="1.49865" gorn="0.0.3.2"/>
        </g>
    </g>
    <g  id="silkscreen" gorn="0.1">
        <path d="M0.674047,4.4958 A2.66705,2.66705 0 0 1 1.98235,0.2963" class="other" stroke-width="0.2032"  fill="none" stroke="#f0f0f0"/>
        <path d="M3.55495,0.2964 A2.66696,2.66696 0 0 1 4.86315,4.4958" class="other" stroke-width="0.2032"  fill="none" stroke="#f0f0f0"/>
        <line stroke-linecap="round" x1="0.674147" class="other" x2="4.86315" stroke-width="0.2032"  stroke="#f0f0f0" y1="4.4958" y2="4.4958"/>
        <line stroke-linecap="round" x1="0.113747" class="other" x2="0.514947" stroke-width="0.2032"  stroke="#f0f0f0" y1="3.0988" y2="3.0988"/>
        <line stroke-linecap="round" x1="2.48235" class="other" x2="3.05495" stroke-width="0.2032"  stroke="#f0f0f0" y1="3.0988" y2="3.0988"/>
        <line stroke-linecap="round" x1="5.02235" class="other" x2="5.42355" stroke-width="0.2032"  stroke="#f0f0f0" y1="3.0988" y2="3.0988"/>
    </g>
</svg>
