<?xml version='1.0' encoding='utf-8'?>
<!DOCTYPE svg>
<!-- Generator: Adobe Illustrator 14.0.0, SVG Export Plug-In . SVG Version: 6.00 Build 43363)  -->
<svg xmlns="http://www.w3.org/2000/svg" version="1.1" x="0"  y="0" baseProfile="basic" viewBox="0 0 16.527 24.081" id="Layer_1" height="0.3344583in" width="0.22954in" gorn="0">
    <desc>
        <referenceFile>tmp36.svg</referenceFile>
    </desc>
    <g  id="breadboard" gorn="0.0">
        <rect x="0"  y="22.081" fill="none" id="connector0pin" height="1" width="2.16" gorn="0.0.0"/>
        <rect x="7.181"  y="22.081" fill="none" id="connector1pin" height="1" width="2.16" gorn="0.0.1"/>
        <rect x="14.367"  y="22.081" fill="none" id="connector2pin" height="1" width="2.16" gorn="0.0.2"/>
        <line stroke-linecap="round" x1="1.08" x2="1.08" stroke-width="2.16"  fill="none" stroke="#8C8C8C" id="connector0leg" y1="24.081" y2="31.259" gorn="0.0.3"/>
        <line stroke-linecap="round" x1="8.261" x2="8.261" stroke-width="2.16"  fill="none" stroke="#8C8C8C" id="connector1leg" y1="24.081" y2="31.259" gorn="0.0.4"/>
        <line stroke-linecap="round" x1="15.447" x2="15.447" stroke-width="2.16"  fill="none" stroke="#8C8C8C" id="connector2leg" y1="24.081" y2="31.259" gorn="0.0.5"/>
        <rect x="7.178"  y="14.731" fill="#8C8C8C" id="rect9506" height="9.351" width="2.154" gorn="0.0.6"/>
        <path d="M3.287,14.731v3.316c0,0.424-0.782,1.059-1.198,1.425c-1.025,0.891-2.088,1.819-2.088,2.992&#xa;&#x9;&#x9;v1.619h2.154c0,0,0-1,0-1.21c0-0.517,0.904-1.389,1.35-1.769c0.997-0.87,1.945-1.69,1.945-2.749v-3.625H3.287L3.287,14.731z"  fill="#8C8C8C" id="path9510" gorn="0.0.7"/>
        <path d="M13.221,14.731v3.316c0,0.424,0.781,1.059,1.199,1.425c1.027,0.891,2.089,1.819,2.089,2.992&#xa;&#x9;&#x9;v1.619h-2.154c0,0,0-1,0-1.21c0-0.517-0.904-1.389-1.35-1.769c-0.998-0.87-1.945-1.69-1.945-2.749v-3.625H13.221L13.221,14.731z"  fill="#8C8C8C" id="path9514" gorn="0.0.8"/>
        <rect x="1.615"  y="4.659" fill="#1A1A1A" id="rect9553" height="10.07" width="13.278" gorn="0.0.9"/>
        <path d="M13.889,4.659v2.453v8.228v1.842c0.632-0.713,1.004-1.553,1.004-2.453l0,0V4.659H13.889z"  fill="#141414" id="path9555" gorn="0.0.10"/>
        <path d="M2.621,4.659H1.616v10.07l0,0c0,0.899,0.373,1.74,1.005,2.453V15.34V7.112V4.659z"  fill="#242424" id="path9557" gorn="0.0.11"/>
        <path d="M1.615,4.659L1.615,4.659c0,0.899,0.373,1.74,1.005,2.453h11.276&#xa;&#x9;&#x9;c0.632-0.713,1.005-1.554,1.005-2.453l0,0H1.615z"  fill="#1F1F1F" id="path9559" gorn="0.0.12"/>
        <path d="M8.255,0C4.587,0,1.615,2.086,1.615,4.661h13.278C14.893,2.086,11.923,0,8.255,0z"  fill="#141414" id="path9561" gorn="0.0.13"/>
        <rect x="2.621"  y="7.112" id="rect9563" height="10.07" width="11.276" gorn="0.0.14"/>
        <text x="8.2635"  y="12" fill="#e6e6e6" text-anchor="middle" stroke="none" id="label0" font-size="3" font-family="OCRA" gorn="0.0.15">TMP</text>
        <text x="8.2635"  y="15" fill="#e6e6e6" text-anchor="middle" stroke="none" id="label0" font-size="3" font-family="OCRA" gorn="0.0.16">36</text>
    </g>
</svg>
